…
```r
Cancer
```

```
## # A tibble: 953 x 17
##    `Provider ID` `Hospital Name` City  State `Number of deat~
##            <dbl> <chr>           <chr> <chr>            <dbl>
##  1         10006 Eliza Coffee M~ Flor~ AL                 119
##  2         10024 Jackson Hospit~ Mont~ AL                  93
##  3         10029 East Alabama M~ Opel~ AL                  86
##  4         10033 University of ~ Birm~ AL                 211
##  5         10039 Huntsville Hos~ Hunt~ AL                 331
##  6         10055 Flowers Hospit~ Doth~ AL                  81
##  7         10056 St. Vincent's ~ Birm~ AL                 102
##  8         10078 Northeast Alab~ Anni~ AL                  88
##  9         10085 Decatur Genera~ Deca~ AL                  81
## 10         10090 Providence Hos~ Mobi~ AL                  94
## # ... with 943 more rows, and 12 more variables: `Percent of cancer
## #   patients dying in hospital (2010)` <dbl>, `Percent of cancer patients
## #   admitted to hospital during the last month of life (2010
## #   deaths)` <dbl>, `Hospital days per cancer patient during the last
## #   month of life (2010 deaths)` <dbl>, `Percent of cancer patients
## #   admitted to intensive care during the last month of life (2010
## #   deaths)` <dbl>, `ICU days per cancer patient during the last month of
## #   life (2010 deaths)` <dbl>, `Percent of cancer patients receiving
## #   life-sustaining treatment during the last month of life (2010
…
## Had to use select to exclude "X17-20". They skewed my NA value. 

```r
CancerNEW <- Cancer %>%
  select(`Provider ID`, `Hospital Name`, City, State, `Number of deaths among cancer patients assigned to hospital (2010)`, `Percent of cancer patients dying in hospital (2010)`, `Percent of cancer patients admitted to hospital during the last month of life (2010 deaths)`, `Percent of cancer patients admitted to intensive care during the last month of life (2010 deaths)`, `ICU days per cancer patient during the last month of life (2010 deaths)`, `Percent of cancer patients receiving life-sustaining treatment during the last month of life (2010 deaths)`, `Percent of cancer patients receiving chemotherapy during the last two weeks of life (2010 deaths)`, `Percent of cancer patients enrolled in hospice during the last month of life (2010 deaths)`, `Percent of cancer patients enrolled in hospice during the last three days of life (2010 deaths)`, `Percent of cancer patients seeing ten or more physicians during the last six months of life (2010 deaths)`,`HIV Related` )
CancerNEW
```

```
## # A tibble: 953 x 15
##    `Provider ID` `Hospital Name` City  State `Number of deat~
##            <dbl> <chr>           <chr> <chr>            <dbl>
##  1         10006 Eliza Coffee M~ Flor~ AL                 119
##  2         10024 Jackson Hospit~ Mont~ AL                  93
##  3         10029 East Alabama M~ Opel~ AL                  86
##  4         10033 University of ~ Birm~ AL                 211
##  5         10039 Huntsville Hos~ Hunt~ AL                 331
##  6         10055 Flowers Hospit~ Doth~ AL                  81
##  7         10056 St. Vincent's ~ Birm~ AL                 102
##  8         10078 Northeast Alab~ Anni~ AL                  88
##  9         10085 Decatur Genera~ Deca~ AL                  81
## 10         10090 Providence Hos~ Mobi~ AL                  94
## # ... with 943 more rows, and 10 more variables: `Percent of cancer
## #   patients dying in hospital (2010)` <dbl>, `Percent of cancer patients
## #   admitted to hospital during the last month of life (2010
## #   deaths)` <dbl>, `Percent of cancer patients admitted to intensive care
## #   during the last month of life (2010 deaths)` <dbl>, `ICU days per
## #   cancer patient during the last month of life (2010 deaths)` <dbl>,
## #   `Percent of cancer patients receiving life-sustaining treatment during
## #   the last month of life (2010 deaths)` <dbl>, `Percent of cancer
## #   patients receiving chemotherapy during the last two weeks of life
…
```
## # A tibble: 953 x 15
##    `Provider ID` `Hospital Name` City  State Deaths_in_hospi~ Percent_death
##            <dbl> <chr>           <chr> <chr>            <dbl>         <dbl>
##  1         10006 Eliza Coffee M~ Flor~ AL                 119          42  
##  2         10024 Jackson Hospit~ Mont~ AL                  93          29.5
##  3         10029 East Alabama M~ Opel~ AL                  86          24.7
##  4         10033 University of ~ Birm~ AL                 211          34.3
##  5         10039 Huntsville Hos~ Hunt~ AL                 331          36.1
##  6         10055 Flowers Hospit~ Doth~ AL                  81          29.3
##  7         10056 St. Vincent's ~ Birm~ AL                 102          29.6
##  8         10078 Northeast Alab~ Anni~ AL                  88          40.3
##  9         10085 Decatur Genera~ Deca~ AL                  81          18.3
## 10         10090 Providence Hos~ Mobi~ AL                  94          35.7
## # ... with 943 more rows, and 9 more variables: percent_admitted_LM <dbl>,
## #   percent_admitted_ICU_LM <dbl>, Avg_ICU_Days_LM <dbl>,
## #   Percent_receiving_LStreatment_LM <dbl>,
## #   Percent_receiving_chemo_L2W <dbl>, Percent_Hospice_LM <dbl>,
## #   Percent_Hospice_L3D <dbl>, Percent_seeing_10ormoreMDs_L6M <dbl>, `HIV
## #   Related` <chr>
```
…
## We have a ton of NAs. Majority of these come from the the variables shown in the previous slide.

## Highest death rate by State

```r
CancerName %>%
  select(State, Percent_death) %>%
  arrange(desc(Percent_death))
```

```
## # A tibble: 953 x 2
##    State Percent_death
##    <chr>         <dbl>
##  1 NY             54.8
##  2 NY             52.8
##  3 NJ             52.4
##  4 IN             51.7
##  5 NY             49.8
##  6 NY             49.8
##  7 CA             49.7
##  8 CA             48.6
##  9 NY             48.6
## 10 NY             48.1
## # ... with 943 more rows
```
…
## Lowest death rate by State

```r
CancerName %>%
  select(State, Percent_death) %>%
  arrange(Percent_death)
```

```
## # A tibble: 953 x 2
##    State Percent_death
##    <chr>         <dbl>
##  1 FL              7  
##  2 FL              8.9
##  3 FL              9.6
##  4 FL             11.1
##  5 NJ             11.2
##  6 MI             11.3
##  7 FL             11.4
##  8 PA             11.5
##  9 TN             11.6
## 10 FL             11.7
## # ... with 943 more rows
```
…
## Focusing strictly on HIV related cases 

```r
CancerHIV <- CancerName %>%
  filter(`HIV Related`=="HIV")
CancerHIV
```

```
## # A tibble: 128 x 15
##    `Provider ID` `Hospital Name` City  State Deaths_in_hospi~ Percent_death
##            <dbl> <chr>           <chr> <chr>            <dbl>         <dbl>
##  1         10033 University of ~ Birm~ AL                 211          34.3
##  2         30064 University Med~ Tucs~ AZ                 131          18.3
##  3         30103 Mayo Clinic Ho~ Phoe~ AZ                 206          13.1
##  4         40016 UAMS Medical C~ Litt~ AR                 145          27.5
##  5         50025 UC San Diego H~ San ~ CA                 117          27.8
##  6         50146 City of Hope-H~ Duar~ CA                 118          24.2
##  7         50262 Ronald Reagan ~ Los ~ CA                 109          40  
##  8         50327 Loma Linda Uni~ Loma~ CA                 102          31.3
##  9         50348 UC Irvine Heal~ Oran~ CA                  95          29.9
## 10         50441 Stanford Hospi~ Stan~ CA                 200          36.6
## # ... with 118 more rows, and 9 more variables: percent_admitted_LM <dbl>,
## #   percent_admitted_ICU_LM <dbl>, Avg_ICU_Days_LM <dbl>,
## #   Percent_receiving_LStreatment_LM <dbl>,
## #   Percent_receiving_chemo_L2W <dbl>, Percent_Hospice_LM <dbl>,
## #   Percent_Hospice_L3D <dbl>, Percent_seeing_10ormoreMDs_L6M <dbl>, `HIV
## #   Related` <chr>
```
## What's the average deaths per state for HIV cases 

```r
CancerHIV_2 <-CancerHIV %>%
  select(City, State, Deaths_in_hospital) %>%
  filter(!State=="NA") %>%
  group_by(State) %>%
  summarize(
    State_mean = mean(Deaths_in_hospital)) %>%
  arrange(desc(State_mean))
CancerHIV_2
```

```
## # A tibble: 42 x 2
##    State State_mean
##    <chr>      <dbl>
##  1 IL          263.
##  2 IN          262 
##  3 MO          262.
##  4 TX          246 
##  5 NY          239.
##  6 ME          238 
##  7 NC          237.
##  8 OH          233 
##  9 CT          216 
## 10 MI          215.
## # ... with 32 more rows
```
…
## Does that mean IL, or competing states, are the worst state to treat cancer cases caused by HIV?

```r
CancerHIV_3<- CancerHIV %>%
  select(City, State, Percent_death, `HIV Related`) %>% 
  group_by(State) %>%
  summarize(State_mean_percent_death=mean(Percent_death))
CancerHIV_3
```

```
## # A tibble: 43 x 2
##    State State_mean_percent_death
##    <chr>                    <dbl>
##  1 AL                        34.3
##  2 AR                        27.5
##  3 AZ                        15.7
##  4 CA                        33.9
##  5 CO                        17.3
##  6 CT                        32.9
##  7 DC                        40  
##  8 FL                        27.0
##  9 GA                        23.4
## 10 IA                        20.3
## # ... with 33 more rows
```
…
